<svg id="Grupo_39" data-name="Grupo 39" xmlns="http://www.w3.org/2000/svg" xmlns:xlink="http://www.w3.org/1999/xlink" width="33.861" height="33.861" viewBox="0 0 33.861 33.861">
  <defs>
    <clipPath id="clip-path">
      <rect id="Rectángulo_41" data-name="Rectángulo 41" width="33.861" height="33.861" fill="#fff"/>
    </clipPath>
  </defs>
  <g id="Grupo_38" data-name="Grupo 38" transform="translate(0 0)" clip-path="url(#clip-path)">
    <path id="Trazado_64" data-name="Trazado 64" d="M32.507,22.2a1.014,1.014,0,1,1-1.014-1.014A1.014,1.014,0,0,1,32.507,22.2m-1.263,4.547a4.26,4.26,0,1,1-4.26-4.26,4.265,4.265,0,0,1,4.26,4.26m-1.531,0a2.729,2.729,0,1,0-2.729,2.729,2.732,2.732,0,0,0,2.729-2.729m5.894-3.423a5.2,5.2,0,0,0-5.2-5.2H23.319a5.2,5.2,0,0,0-5.2,5.2V30.41a5.2,5.2,0,0,0,5.2,5.2H30.41a5.2,5.2,0,0,0,5.2-5.2ZM33.9,30.332A3.569,3.569,0,0,1,30.332,33.9H23.4a3.569,3.569,0,0,1-3.569-3.569V23.4A3.569,3.569,0,0,1,23.4,19.829h6.934A3.569,3.569,0,0,1,33.9,23.4Z" transform="translate(-9.934 -9.934)" fill="#fff"/>
    <path id="Trazado_65" data-name="Trazado 65" d="M16.931,0A16.931,16.931,0,1,0,33.861,16.931,16.95,16.95,0,0,0,16.931,0m0,31.69A14.759,14.759,0,1,1,31.69,16.931,14.776,14.776,0,0,1,16.931,31.69" transform="translate(0 0)" fill="#fff"/>
  </g>
</svg>
