<svg id="Grupo_41" data-name="Grupo 41" xmlns="http://www.w3.org/2000/svg" xmlns:xlink="http://www.w3.org/1999/xlink" width="33.861" height="33.861" viewBox="0 0 33.861 33.861">
  <defs>
    <clipPath id="clip-path">
      <rect id="Rectángulo_42" data-name="Rectángulo 42" width="33.861" height="33.861" fill="#fff"/>
    </clipPath>
  </defs>
  <g id="Grupo_40" data-name="Grupo 40" transform="translate(0 0)" clip-path="url(#clip-path)">
    <path id="Trazado_67" data-name="Trazado 67" d="M16.931,0A16.931,16.931,0,1,0,33.861,16.931,16.95,16.95,0,0,0,16.931,0m0,31.69A14.759,14.759,0,1,1,31.69,16.931,14.776,14.776,0,0,1,16.931,31.69" transform="translate(0 0)" fill="#fff"/>
    <path id="Trazado_186" data-name="Trazado 186" d="M12.5,1.153h2.433L9.613,7.229l6.254,8.266h-4.9L7.136,10.481,2.748,15.495H.313L6,9,0,1.154H5.021L8.487,5.737Zm-.854,12.886H12.99L4.288,2.533H2.841Z" transform="translate(8.997 8.607)" fill="#fff"/>
  </g>
</svg>
